02.26_fifo/02.26_fifo.sim/sim_1/behav/xsim/simulate.log
Vivado Simulator 2020.2
Time resolution is 1 ps
            30.000ns : [gen] push = 1, wdata = 5f, full = x, pop = 0, rdata = xx, empty = x
            36.000ns : [drv] push = 1, wdata = 5f, full = x, pop = 0, rdata = xx, empty = x
            40.000ns : [mon] push = 1, wdata = 5f, full = 0, pop = 0, rdata = xx, empty = 1
            40.000ns : [scb] push = 1, wdata = 5f, full = 0, pop = 0, rdata = xx, empty = 1
            40.000ns : [gen] push = 1, wdata = bb, full = x, pop = 0, rdata = xx, empty = x
            46.000ns : [drv] push = 1, wdata = bb, full = x, pop = 0, rdata = xx, empty = x
            50.000ns : [mon] push = 1, wdata = bb, full = 0, pop = 0, rdata = 5f, empty = 0
            50.000ns : [scb] push = 1, wdata = bb, full = 0, pop = 0, rdata = 5f, empty = 0
            50.000ns : [gen] push = 0, wdata = 96, full = x, pop = 1, rdata = xx, empty = x
            56.000ns : [drv] push = 0, wdata = 96, full = x, pop = 1, rdata = xx, empty = x
            60.000ns : [mon] push = 0, wdata = 96, full = 0, pop = 1, rdata = 5f, empty = 0
            60.000ns : [scb] push = 0, wdata = 96, full = 0, pop = 1, rdata = 5f, empty = 0
PASS
            60.000ns : [gen] push = 1, wdata = a7, full = x, pop = 0, rdata = xx, empty = x
            66.000ns : [drv] push = 1, wdata = a7, full = x, pop = 0, rdata = xx, empty = x
            70.000ns : [mon] push = 1, wdata = a7, full = 0, pop = 0, rdata = bb, empty = 0
            70.000ns : [scb] push = 1, wdata = a7, full = 0, pop = 0, rdata = bb, empty = 0
            70.000ns : [gen] push = 1, wdata = 13, full = x, pop = 0, rdata = xx, empty = x
            76.000ns : [drv] push = 1, wdata = 13, full = x, pop = 0, rdata = xx, empty = x
            80.000ns : [mon] push = 1, wdata = 13, full = 0, pop = 0, rdata = bb, empty = 0
            80.000ns : [scb] push = 1, wdata = 13, full = 0, pop = 0, rdata = bb, empty = 0
            80.000ns : [gen] push = 1, wdata = 97, full = x, pop = 1, rdata = xx, empty = x
            86.000ns : [drv] push = 1, wdata = 97, full = x, pop = 1, rdata = xx, empty = x
            90.000ns : [mon] push = 1, wdata = 97, full = 0, pop = 1, rdata = bb, empty = 0
            90.000ns : [scb] push = 1, wdata = 97, full = 0, pop = 1, rdata = bb, empty = 0
PASS
            90.000ns : [gen] push = 0, wdata = d8, full = x, pop = 0, rdata = xx, empty = x
            96.000ns : [drv] push = 0, wdata = d8, full = x, pop = 0, rdata = xx, empty = x
           100.000ns : [mon] push = 0, wdata = 97, full = 0, pop = 0, rdata = a7, empty = 0
           100.000ns : [scb] push = 0, wdata = 97, full = 0, pop = 0, rdata = a7, empty = 0
           100.000ns : [gen] push = 0, wdata = 52, full = x, pop = 1, rdata = xx, empty = x
           106.000ns : [drv] push = 0, wdata = 52, full = x, pop = 1, rdata = xx, empty = x
           110.000ns : [mon] push = 0, wdata = 52, full = 0, pop = 1, rdata = a7, empty = 0
           110.000ns : [scb] push = 0, wdata = 52, full = 0, pop = 1, rdata = a7, empty = 0
PASS
           110.000ns : [gen] push = 1, wdata = 3f, full = x, pop = 1, rdata = xx, empty = x
           116.000ns : [drv] push = 1, wdata = 3f, full = x, pop = 1, rdata = xx, empty = x
           120.000ns : [mon] push = 1, wdata = 3f, full = 0, pop = 1, rdata = 13, empty = 0
           120.000ns : [scb] push = 1, wdata = 3f, full = 0, pop = 1, rdata = 13, empty = 0
PASS
           120.000ns : [gen] push = 0, wdata = 24, full = x, pop = 0, rdata = xx, empty = x
           126.000ns : [drv] push = 0, wdata = 24, full = x, pop = 0, rdata = xx, empty = x
           130.000ns : [mon] push = 0, wdata = 3f, full = 0, pop = 0, rdata = 97, empty = 0
           130.000ns : [scb] push = 0, wdata = 3f, full = 0, pop = 0, rdata = 97, empty = 0
           130.000ns : [gen] push = 1, wdata = d2, full = x, pop = 1, rdata = xx, empty = x
           136.000ns : [drv] push = 1, wdata = d2, full = x, pop = 1, rdata = xx, empty = x
           140.000ns : [mon] push = 1, wdata = d2, full = 0, pop = 1, rdata = 97, empty = 0
           140.000ns : [scb] push = 1, wdata = d2, full = 0, pop = 1, rdata = 97, empty = 0
PASS
           140.000ns : [gen] push = 1, wdata = 36, full = x, pop = 0, rdata = xx, empty = x
           146.000ns : [drv] push = 1, wdata = 36, full = x, pop = 0, rdata = xx, empty = x
           150.000ns : [mon] push = 1, wdata = 36, full = 0, pop = 0, rdata = 3f, empty = 0
           150.000ns : [scb] push = 1, wdata = 36, full = 0, pop = 0, rdata = 3f, empty = 0
           150.000ns : [gen] push = 1, wdata = c1, full = x, pop = 1, rdata = xx, empty = x
           156.000ns : [drv] push = 1, wdata = c1, full = x, pop = 1, rdata = xx, empty = x
           160.000ns : [mon] push = 1, wdata = c1, full = 0, pop = 1, rdata = 3f, empty = 0
           160.000ns : [scb] push = 1, wdata = c1, full = 0, pop = 1, rdata = 3f, empty = 0
PASS
           160.000ns : [gen] push = 0, wdata = b0, full = x, pop = 0, rdata = xx, empty = x
           166.000ns : [drv] push = 0, wdata = b0, full = x, pop = 0, rdata = xx, empty = x
           170.000ns : [mon] push = 0, wdata = c1, full = 0, pop = 0, rdata = d2, empty = 0
           170.000ns : [scb] push = 0, wdata = c1, full = 0, pop = 0, rdata = d2, empty = 0
           170.000ns : [gen] push = 1, wdata = 67, full = x, pop = 1, rdata = xx, empty = x
           176.000ns : [drv] push = 1, wdata = 67, full = x, pop = 1, rdata = xx, empty = x
           180.000ns : [mon] push = 1, wdata = 67, full = 0, pop = 1, rdata = d2, empty = 0
           180.000ns : [scb] push = 1, wdata = 67, full = 0, pop = 1, rdata = d2, empty = 0
PASS
           180.000ns : [gen] push = 0, wdata = 58, full = x, pop = 0, rdata = xx, empty = x
           186.000ns : [drv] push = 0, wdata = 58, full = x, pop = 0, rdata = xx, empty = x
           190.000ns : [mon] push = 0, wdata = 67, full = 0, pop = 0, rdata = 36, empty = 0
           190.000ns : [scb] push = 0, wdata = 67, full = 0, pop = 0, rdata = 36, empty = 0
           190.000ns : [gen] push = 0, wdata = 84, full = x, pop = 0, rdata = xx, empty = x
           196.000ns : [drv] push = 0, wdata = 84, full = x, pop = 0, rdata = xx, empty = x
           200.000ns : [mon] push = 0, wdata = 67, full = 0, pop = 0, rdata = 36, empty = 0
           200.000ns : [scb] push = 0, wdata = 67, full = 0, pop = 0, rdata = 36, empty = 0
           200.000ns : [gen] push = 0, wdata = a5, full = x, pop = 1, rdata = xx, empty = x
           206.000ns : [drv] push = 0, wdata = a5, full = x, pop = 1, rdata = xx, empty = x
           210.000ns : [mon] push = 0, wdata = a5, full = 0, pop = 1, rdata = 36, empty = 0
           210.000ns : [scb] push = 0, wdata = a5, full = 0, pop = 1, rdata = 36, empty = 0
PASS
           210.000ns : [gen] push = 1, wdata = 41, full = x, pop = 1, rdata = xx, empty = x
           216.000ns : [drv] push = 1, wdata = 41, full = x, pop = 1, rdata = xx, empty = x
           220.000ns : [mon] push = 1, wdata = 41, full = 0, pop = 1, rdata = c1, empty = 0
           220.000ns : [scb] push = 1, wdata = 41, full = 0, pop = 1, rdata = c1, empty = 0
PASS
           220.000ns : [gen] push = 1, wdata = 61, full = x, pop = 1, rdata = xx, empty = x
           226.000ns : [drv] push = 1, wdata = 61, full = x, pop = 1, rdata = xx, empty = x
           230.000ns : [mon] push = 1, wdata = 61, full = 0, pop = 1, rdata = 67, empty = 0
           230.000ns : [scb] push = 1, wdata = 61, full = 0, pop = 1, rdata = 67, empty = 0
PASS
           230.000ns : [gen] push = 0, wdata = 19, full = x, pop = 0, rdata = xx, empty = x
           236.000ns : [drv] push = 0, wdata = 19, full = x, pop = 0, rdata = xx, empty = x
           240.000ns : [mon] push = 0, wdata = 61, full = 0, pop = 0, rdata = 41, empty = 0
           240.000ns : [scb] push = 0, wdata = 61, full = 0, pop = 0, rdata = 41, empty = 0
           240.000ns : [gen] push = 0, wdata = 56, full = x, pop = 0, rdata = xx, empty = x
           246.000ns : [drv] push = 0, wdata = 56, full = x, pop = 0, rdata = xx, empty = x
           250.000ns : [mon] push = 0, wdata = 61, full = 0, pop = 0, rdata = 41, empty = 0
           250.000ns : [scb] push = 0, wdata = 61, full = 0, pop = 0, rdata = 41, empty = 0
           250.000ns : [gen] push = 0, wdata = 43, full = x, pop = 1, rdata = xx, empty = x
           256.000ns : [drv] push = 0, wdata = 43, full = x, pop = 1, rdata = xx, empty = x
           260.000ns : [mon] push = 0, wdata = 43, full = 0, pop = 1, rdata = 41, empty = 0
           260.000ns : [scb] push = 0, wdata = 43, full = 0, pop = 1, rdata = 41, empty = 0
PASS
           260.000ns : [gen] push = 0, wdata = 7d, full = x, pop = 1, rdata = xx, empty = x
           266.000ns : [drv] push = 0, wdata = 7d, full = x, pop = 1, rdata = xx, empty = x
           270.000ns : [mon] push = 0, wdata = 7d, full = 0, pop = 1, rdata = 61, empty = 0
           270.000ns : [scb] push = 0, wdata = 7d, full = 0, pop = 1, rdata = 61, empty = 0
PASS
           270.000ns : [gen] push = 1, wdata = 19, full = x, pop = 1, rdata = xx, empty = x
           276.000ns : [drv] push = 1, wdata = 19, full = x, pop = 1, rdata = xx, empty = x
           280.000ns : [mon] push = 1, wdata = 19, full = 0, pop = 1, rdata = xx, empty = 1
           280.000ns : [scb] push = 1, wdata = 19, full = 0, pop = 1, rdata = xx, empty = 1
           280.000ns : [gen] push = 1, wdata = 4c, full = x, pop = 0, rdata = xx, empty = x
           286.000ns : [drv] push = 1, wdata = 4c, full = x, pop = 0, rdata = xx, empty = x
           290.000ns : [mon] push = 1, wdata = 4c, full = 0, pop = 0, rdata = 19, empty = 0
           290.000ns : [scb] push = 1, wdata = 4c, full = 0, pop = 0, rdata = 19, empty = 0
           290.000ns : [gen] push = 1, wdata = e9, full = x, pop = 1, rdata = xx, empty = x
           296.000ns : [drv] push = 1, wdata = e9, full = x, pop = 1, rdata = xx, empty = x
           300.000ns : [mon] push = 1, wdata = e9, full = 0, pop = 1, rdata = 19, empty = 0
           300.000ns : [scb] push = 1, wdata = e9, full = 0, pop = 1, rdata = 19, empty = 0
PASS
           300.000ns : [gen] push = 0, wdata = 6d, full = x, pop = 0, rdata = xx, empty = x
           306.000ns : [drv] push = 0, wdata = 6d, full = x, pop = 0, rdata = xx, empty = x
           310.000ns : [mon] push = 0, wdata = e9, full = 0, pop = 0, rdata = 4c, empty = 0
           310.000ns : [scb] push = 0, wdata = e9, full = 0, pop = 0, rdata = 4c, empty = 0
           310.000ns : [gen] push = 0, wdata = 48, full = x, pop = 0, rdata = xx, empty = x
           316.000ns : [drv] push = 0, wdata = 48, full = x, pop = 0, rdata = xx, empty = x
           320.000ns : [mon] push = 0, wdata = e9, full = 0, pop = 0, rdata = 4c, empty = 0
           320.000ns : [scb] push = 0, wdata = e9, full = 0, pop = 0, rdata = 4c, empty = 0
           320.000ns : [gen] push = 0, wdata = db, full = x, pop = 1, rdata = xx, empty = x
           326.000ns : [drv] push = 0, wdata = db, full = x, pop = 1, rdata = xx, empty = x
           330.000ns : [mon] push = 0, wdata = db, full = 0, pop = 1, rdata = 4c, empty = 0
           330.000ns : [scb] push = 0, wdata = db, full = 0, pop = 1, rdata = 4c, empty = 0
PASS
           330.000ns : [gen] push = 0, wdata = 43, full = x, pop = 1, rdata = xx, empty = x
           336.000ns : [drv] push = 0, wdata = 43, full = x, pop = 1, rdata = xx, empty = x
           340.000ns : [mon] push = 0, wdata = 43, full = 0, pop = 1, rdata = e9, empty = 0
           340.000ns : [scb] push = 0, wdata = 43, full = 0, pop = 1, rdata = e9, empty = 0
PASS
           340.000ns : [gen] push = 1, wdata = 3d, full = x, pop = 1, rdata = xx, empty = x
           346.000ns : [drv] push = 1, wdata = 3d, full = x, pop = 1, rdata = xx, empty = x
           350.000ns : [mon] push = 1, wdata = 3d, full = 0, pop = 1, rdata = xx, empty = 1
           350.000ns : [scb] push = 1, wdata = 3d, full = 0, pop = 1, rdata = xx, empty = 1
           350.000ns : [gen] push = 0, wdata = 17, full = x, pop = 1, rdata = xx, empty = x
           356.000ns : [drv] push = 0, wdata = 17, full = x, pop = 1, rdata = xx, empty = x
           360.000ns : [mon] push = 0, wdata = 17, full = 0, pop = 1, rdata = 3d, empty = 0
           360.000ns : [scb] push = 0, wdata = 17, full = 0, pop = 1, rdata = 3d, empty = 0
PASS
           360.000ns : [gen] push = 1, wdata = 43, full = x, pop = 1, rdata = xx, empty = x
           366.000ns : [drv] push = 1, wdata = 43, full = x, pop = 1, rdata = xx, empty = x
           370.000ns : [mon] push = 1, wdata = 43, full = 0, pop = 1, rdata = 5f, empty = 1
           370.000ns : [scb] push = 1, wdata = 43, full = 0, pop = 1, rdata = 5f, empty = 1
           370.000ns : [gen] push = 1, wdata = de, full = x, pop = 1, rdata = xx, empty = x
           376.000ns : [drv] push = 1, wdata = de, full = x, pop = 1, rdata = xx, empty = x
           380.000ns : [mon] push = 1, wdata = de, full = 0, pop = 1, rdata = 43, empty = 0
           380.000ns : [scb] push = 1, wdata = de, full = 0, pop = 1, rdata = 43, empty = 0
PASS
           380.000ns : [gen] push = 1, wdata = 2d, full = x, pop = 0, rdata = xx, empty = x
           386.000ns : [drv] push = 1, wdata = 2d, full = x, pop = 0, rdata = xx, empty = x
           390.000ns : [mon] push = 1, wdata = 2d, full = 0, pop = 0, rdata = de, empty = 0
           390.000ns : [scb] push = 1, wdata = 2d, full = 0, pop = 0, rdata = de, empty = 0
           390.000ns : [gen] push = 0, wdata = 8b, full = x, pop = 1, rdata = xx, empty = x
           396.000ns : [drv] push = 0, wdata = 8b, full = x, pop = 1, rdata = xx, empty = x
           400.000ns : [mon] push = 0, wdata = 8b, full = 0, pop = 1, rdata = de, empty = 0
           400.000ns : [scb] push = 0, wdata = 8b, full = 0, pop = 1, rdata = de, empty = 0
PASS
           400.000ns : [gen] push = 0, wdata = dd, full = x, pop = 1, rdata = xx, empty = x
           406.000ns : [drv] push = 0, wdata = dd, full = x, pop = 1, rdata = xx, empty = x
           410.000ns : [mon] push = 0, wdata = dd, full = 0, pop = 1, rdata = 2d, empty = 0
           410.000ns : [scb] push = 0, wdata = dd, full = 0, pop = 1, rdata = 2d, empty = 0
PASS
           410.000ns : [gen] push = 1, wdata = 2e, full = x, pop = 0, rdata = xx, empty = x
           416.000ns : [drv] push = 1, wdata = 2e, full = x, pop = 0, rdata = xx, empty = x
           420.000ns : [mon] push = 1, wdata = 2e, full = 0, pop = 0, rdata = 13, empty = 1
           420.000ns : [scb] push = 1, wdata = 2e, full = 0, pop = 0, rdata = 13, empty = 1
           420.000ns : [gen] push = 1, wdata = b7, full = x, pop = 1, rdata = xx, empty = x
           426.000ns : [drv] push = 1, wdata = b7, full = x, pop = 1, rdata = xx, empty = x
           430.000ns : [mon] push = 1, wdata = b7, full = 0, pop = 1, rdata = 2e, empty = 0
           430.000ns : [scb] push = 1, wdata = b7, full = 0, pop = 1, rdata = 2e, empty = 0
PASS
           430.000ns : [gen] push = 1, wdata = 1f, full = x, pop = 1, rdata = xx, empty = x
           436.000ns : [drv] push = 1, wdata = 1f, full = x, pop = 1, rdata = xx, empty = x
           440.000ns : [mon] push = 1, wdata = 1f, full = 0, pop = 1, rdata = b7, empty = 0
           440.000ns : [scb] push = 1, wdata = 1f, full = 0, pop = 1, rdata = b7, empty = 0
PASS
           440.000ns : [gen] push = 1, wdata = 20, full = x, pop = 1, rdata = xx, empty = x
           446.000ns : [drv] push = 1, wdata = 20, full = x, pop = 1, rdata = xx, empty = x
           450.000ns : [mon] push = 1, wdata = 20, full = 0, pop = 1, rdata = 1f, empty = 0
           450.000ns : [scb] push = 1, wdata = 20, full = 0, pop = 1, rdata = 1f, empty = 0
PASS
           450.000ns : [gen] push = 1, wdata = 0d, full = x, pop = 0, rdata = xx, empty = x
           456.000ns : [drv] push = 1, wdata = 0d, full = x, pop = 0, rdata = xx, empty = x
           460.000ns : [mon] push = 1, wdata = 0d, full = 0, pop = 0, rdata = 20, empty = 0
           460.000ns : [scb] push = 1, wdata = 0d, full = 0, pop = 0, rdata = 20, empty = 0
           460.000ns : [gen] push = 0, wdata = 8d, full = x, pop = 1, rdata = xx, empty = x
           466.000ns : [drv] push = 0, wdata = 8d, full = x, pop = 1, rdata = xx, empty = x
           470.000ns : [mon] push = 0, wdata = 8d, full = 0, pop = 1, rdata = 20, empty = 0
           470.000ns : [scb] push = 0, wdata = 8d, full = 0, pop = 1, rdata = 20, empty = 0
PASS
           470.000ns : [gen] push = 0, wdata = 95, full = x, pop = 0, rdata = xx, empty = x
           476.000ns : [drv] push = 0, wdata = 95, full = x, pop = 0, rdata = xx, empty = x
           480.000ns : [mon] push = 0, wdata = 8d, full = 0, pop = 0, rdata = 0d, empty = 0
           480.000ns : [scb] push = 0, wdata = 8d, full = 0, pop = 0, rdata = 0d, empty = 0
           480.000ns : [gen] push = 0, wdata = 16, full = x, pop = 1, rdata = xx, empty = x
           486.000ns : [drv] push = 0, wdata = 16, full = x, pop = 1, rdata = xx, empty = x
           490.000ns : [mon] push = 0, wdata = 16, full = 0, pop = 1, rdata = 0d, empty = 0
           490.000ns : [scb] push = 0, wdata = 16, full = 0, pop = 1, rdata = 0d, empty = 0
PASS
           490.000ns : [gen] push = 0, wdata = 46, full = x, pop = 1, rdata = xx, empty = x
           496.000ns : [drv] push = 0, wdata = 46, full = x, pop = 1, rdata = xx, empty = x
           500.000ns : [mon] push = 0, wdata = 46, full = 0, pop = 1, rdata = c1, empty = 1
           500.000ns : [scb] push = 0, wdata = 46, full = 0, pop = 1, rdata = c1, empty = 1
           500.000ns : [gen] push = 1, wdata = 9e, full = x, pop = 1, rdata = xx, empty = x
           506.000ns : [drv] push = 1, wdata = 9e, full = x, pop = 1, rdata = xx, empty = x
           510.000ns : [mon] push = 1, wdata = 9e, full = 0, pop = 1, rdata = c1, empty = 1
           510.000ns : [scb] push = 1, wdata = 9e, full = 0, pop = 1, rdata = c1, empty = 1
           510.000ns : [gen] push = 1, wdata = eb, full = x, pop = 0, rdata = xx, empty = x
           516.000ns : [drv] push = 1, wdata = eb, full = x, pop = 0, rdata = xx, empty = x
           520.000ns : [mon] push = 1, wdata = eb, full = 0, pop = 0, rdata = 9e, empty = 0
           520.000ns : [scb] push = 1, wdata = eb, full = 0, pop = 0, rdata = 9e, empty = 0
           520.000ns : [gen] push = 0, wdata = 62, full = x, pop = 0, rdata = xx, empty = x
           526.000ns : [drv] push = 0, wdata = 62, full = x, pop = 0, rdata = xx, empty = x
           530.000ns : [mon] push = 0, wdata = eb, full = 0, pop = 0, rdata = 9e, empty = 0
           530.000ns : [scb] push = 0, wdata = eb, full = 0, pop = 0, rdata = 9e, empty = 0
           530.000ns : [gen] push = 1, wdata = 52, full = x, pop = 1, rdata = xx, empty = x
           536.000ns : [drv] push = 1, wdata = 52, full = x, pop = 1, rdata = xx, empty = x
           540.000ns : [mon] push = 1, wdata = 52, full = 0, pop = 1, rdata = 9e, empty = 0
           540.000ns : [scb] push = 1, wdata = 52, full = 0, pop = 1, rdata = 9e, empty = 0
PASS
           540.000ns : [gen] push = 0, wdata = dd, full = x, pop = 0, rdata = xx, empty = x
           546.000ns : [drv] push = 0, wdata = dd, full = x, pop = 0, rdata = xx, empty = x
           550.000ns : [mon] push = 0, wdata = 52, full = 0, pop = 0, rdata = eb, empty = 0
           550.000ns : [scb] push = 0, wdata = 52, full = 0, pop = 0, rdata = eb, empty = 0
           550.000ns : [gen] push = 1, wdata = 87, full = x, pop = 1, rdata = xx, empty = x
           556.000ns : [drv] push = 1, wdata = 87, full = x, pop = 1, rdata = xx, empty = x
           560.000ns : [mon] push = 1, wdata = 87, full = 0, pop = 1, rdata = eb, empty = 0
           560.000ns : [scb] push = 1, wdata = 87, full = 0, pop = 1, rdata = eb, empty = 0
PASS
           560.000ns : [gen] push = 0, wdata = 52, full = x, pop = 1, rdata = xx, empty = x
           566.000ns : [drv] push = 0, wdata = 52, full = x, pop = 1, rdata = xx, empty = x
           570.000ns : [mon] push = 0, wdata = 52, full = 0, pop = 1, rdata = 52, empty = 0
           570.000ns : [scb] push = 0, wdata = 52, full = 0, pop = 1, rdata = 52, empty = 0
PASS
           570.000ns : [gen] push = 0, wdata = 05, full = x, pop = 1, rdata = xx, empty = x
           576.000ns : [drv] push = 0, wdata = 05, full = x, pop = 1, rdata = xx, empty = x
           580.000ns : [mon] push = 0, wdata = 05, full = 0, pop = 1, rdata = 87, empty = 0
           580.000ns : [scb] push = 0, wdata = 05, full = 0, pop = 1, rdata = 87, empty = 0
PASS
           580.000ns : [gen] push = 1, wdata = b1, full = x, pop = 0, rdata = xx, empty = x
           586.000ns : [drv] push = 1, wdata = b1, full = x, pop = 0, rdata = xx, empty = x
           590.000ns : [mon] push = 1, wdata = b1, full = 0, pop = 0, rdata = 19, empty = 1
           590.000ns : [scb] push = 1, wdata = b1, full = 0, pop = 0, rdata = 19, empty = 1
           590.000ns : [gen] push = 0, wdata = 12, full = x, pop = 0, rdata = xx, empty = x
           596.000ns : [drv] push = 0, wdata = 12, full = x, pop = 0, rdata = xx, empty = x
           600.000ns : [mon] push = 0, wdata = b1, full = 0, pop = 0, rdata = b1, empty = 0
           600.000ns : [scb] push = 0, wdata = b1, full = 0, pop = 0, rdata = b1, empty = 0
           600.000ns : [gen] push = 1, wdata = 90, full = x, pop = 0, rdata = xx, empty = x
           606.000ns : [drv] push = 1, wdata = 90, full = x, pop = 0, rdata = xx, empty = x
           610.000ns : [mon] push = 1, wdata = 90, full = 0, pop = 0, rdata = b1, empty = 0
           610.000ns : [scb] push = 1, wdata = 90, full = 0, pop = 0, rdata = b1, empty = 0
           610.000ns : [gen] push = 1, wdata = 9d, full = x, pop = 0, rdata = xx, empty = x
           616.000ns : [drv] push = 1, wdata = 9d, full = x, pop = 0, rdata = xx, empty = x
           620.000ns : [mon] push = 1, wdata = 9d, full = 0, pop = 0, rdata = b1, empty = 0
           620.000ns : [scb] push = 1, wdata = 9d, full = 0, pop = 0, rdata = b1, empty = 0
           620.000ns : [gen] push = 1, wdata = ec, full = x, pop = 1, rdata = xx, empty = x
           626.000ns : [drv] push = 1, wdata = ec, full = x, pop = 1, rdata = xx, empty = x
           630.000ns : [mon] push = 1, wdata = ec, full = 0, pop = 1, rdata = b1, empty = 0
           630.000ns : [scb] push = 1, wdata = ec, full = 0, pop = 1, rdata = b1, empty = 0
PASS
           630.000ns : [gen] push = 0, wdata = 48, full = x, pop = 1, rdata = xx, empty = x
           636.000ns : [drv] push = 0, wdata = 48, full = x, pop = 1, rdata = xx, empty = x
           640.000ns : [mon] push = 0, wdata = 48, full = 0, pop = 1, rdata = 90, empty = 0
           640.000ns : [scb] push = 0, wdata = 48, full = 0, pop = 1, rdata = 90, empty = 0
PASS
           640.000ns : [gen] push = 0, wdata = 1d, full = x, pop = 0, rdata = xx, empty = x
           646.000ns : [drv] push = 0, wdata = 1d, full = x, pop = 0, rdata = xx, empty = x
           650.000ns : [mon] push = 0, wdata = 48, full = 0, pop = 0, rdata = 9d, empty = 0
           650.000ns : [scb] push = 0, wdata = 48, full = 0, pop = 0, rdata = 9d, empty = 0
           650.000ns : [gen] push = 0, wdata = c7, full = x, pop = 1, rdata = xx, empty = x
           656.000ns : [drv] push = 0, wdata = c7, full = x, pop = 1, rdata = xx, empty = x
           660.000ns : [mon] push = 0, wdata = c7, full = 0, pop = 1, rdata = 9d, empty = 0
           660.000ns : [scb] push = 0, wdata = c7, full = 0, pop = 1, rdata = 9d, empty = 0
PASS
           660.000ns : [gen] push = 0, wdata = b7, full = x, pop = 0, rdata = xx, empty = x
           666.000ns : [drv] push = 0, wdata = b7, full = x, pop = 0, rdata = xx, empty = x
           670.000ns : [mon] push = 0, wdata = c7, full = 0, pop = 0, rdata = ec, empty = 0
           670.000ns : [scb] push = 0, wdata = c7, full = 0, pop = 0, rdata = ec, empty = 0
           670.000ns : [gen] push = 0, wdata = 49, full = x, pop = 1, rdata = xx, empty = x
           676.000ns : [drv] push = 0, wdata = 49, full = x, pop = 1, rdata = xx, empty = x
           680.000ns : [mon] push = 0, wdata = 49, full = 0, pop = 1, rdata = ec, empty = 0
           680.000ns : [scb] push = 0, wdata = 49, full = 0, pop = 1, rdata = ec, empty = 0
PASS
           680.000ns : [gen] push = 0, wdata = f3, full = x, pop = 0, rdata = xx, empty = x
           686.000ns : [drv] push = 0, wdata = f3, full = x, pop = 0, rdata = xx, empty = x
           690.000ns : [mon] push = 0, wdata = 49, full = 0, pop = 0, rdata = 43, empty = 1
           690.000ns : [scb] push = 0, wdata = 49, full = 0, pop = 0, rdata = 43, empty = 1
           690.000ns : [gen] push = 0, wdata = 32, full = x, pop = 0, rdata = xx, empty = x
           696.000ns : [drv] push = 0, wdata = 32, full = x, pop = 0, rdata = xx, empty = x
           700.000ns : [mon] push = 0, wdata = 49, full = 0, pop = 0, rdata = 43, empty = 1
           700.000ns : [scb] push = 0, wdata = 49, full = 0, pop = 0, rdata = 43, empty = 1
           700.000ns : [gen] push = 1, wdata = a3, full = x, pop = 1, rdata = xx, empty = x
           706.000ns : [drv] push = 1, wdata = a3, full = x, pop = 1, rdata = xx, empty = x
           710.000ns : [mon] push = 1, wdata = a3, full = 0, pop = 1, rdata = 43, empty = 1
           710.000ns : [scb] push = 1, wdata = a3, full = 0, pop = 1, rdata = 43, empty = 1
           710.000ns : [gen] push = 1, wdata = df, full = x, pop = 1, rdata = xx, empty = x
           716.000ns : [drv] push = 1, wdata = df, full = x, pop = 1, rdata = xx, empty = x
           720.000ns : [mon] push = 1, wdata = df, full = 0, pop = 1, rdata = a3, empty = 0
           720.000ns : [scb] push = 1, wdata = df, full = 0, pop = 1, rdata = a3, empty = 0
PASS
           720.000ns : [gen] push = 0, wdata = 69, full = x, pop = 0, rdata = xx, empty = x
           726.000ns : [drv] push = 0, wdata = 69, full = x, pop = 0, rdata = xx, empty = x
           730.000ns : [mon] push = 0, wdata = df, full = 0, pop = 0, rdata = df, empty = 0
           730.000ns : [scb] push = 0, wdata = df, full = 0, pop = 0, rdata = df, empty = 0
           730.000ns : [gen] push = 1, wdata = 1f, full = x, pop = 1, rdata = xx, empty = x
           736.000ns : [drv] push = 1, wdata = 1f, full = x, pop = 1, rdata = xx, empty = x
           740.000ns : [mon] push = 1, wdata = 1f, full = 0, pop = 1, rdata = df, empty = 0
           740.000ns : [scb] push = 1, wdata = 1f, full = 0, pop = 1, rdata = df, empty = 0
PASS
           740.000ns : [gen] push = 0, wdata = c3, full = x, pop = 1, rdata = xx, empty = x
           746.000ns : [drv] push = 0, wdata = c3, full = x, pop = 1, rdata = xx, empty = x
           750.000ns : [mon] push = 0, wdata = c3, full = 0, pop = 1, rdata = 1f, empty = 0
           750.000ns : [scb] push = 0, wdata = c3, full = 0, pop = 1, rdata = 1f, empty = 0
PASS
           750.000ns : [gen] push = 1, wdata = 55, full = x, pop = 1, rdata = xx, empty = x
           756.000ns : [drv] push = 1, wdata = 55, full = x, pop = 1, rdata = xx, empty = x
           760.000ns : [mon] push = 1, wdata = 55, full = 0, pop = 1, rdata = 2e, empty = 1
           760.000ns : [scb] push = 1, wdata = 55, full = 0, pop = 1, rdata = 2e, empty = 1
           760.000ns : [gen] push = 0, wdata = 19, full = x, pop = 0, rdata = xx, empty = x
           766.000ns : [drv] push = 0, wdata = 19, full = x, pop = 0, rdata = xx, empty = x
           770.000ns : [mon] push = 0, wdata = 55, full = 0, pop = 0, rdata = 55, empty = 0
           770.000ns : [scb] push = 0, wdata = 55, full = 0, pop = 0, rdata = 55, empty = 0
           770.000ns : [gen] push = 1, wdata = b3, full = x, pop = 1, rdata = xx, empty = x
           776.000ns : [drv] push = 1, wdata = b3, full = x, pop = 1, rdata = xx, empty = x
           780.000ns : [mon] push = 1, wdata = b3, full = 0, pop = 1, rdata = 55, empty = 0
           780.000ns : [scb] push = 1, wdata = b3, full = 0, pop = 1, rdata = 55, empty = 0
PASS
           780.000ns : [gen] push = 1, wdata = a6, full = x, pop = 0, rdata = xx, empty = x
           786.000ns : [drv] push = 1, wdata = a6, full = x, pop = 0, rdata = xx, empty = x
           790.000ns : [mon] push = 1, wdata = a6, full = 0, pop = 0, rdata = b3, empty = 0
           790.000ns : [scb] push = 1, wdata = a6, full = 0, pop = 0, rdata = b3, empty = 0
           790.000ns : [gen] push = 1, wdata = 18, full = x, pop = 1, rdata = xx, empty = x
           796.000ns : [drv] push = 1, wdata = 18, full = x, pop = 1, rdata = xx, empty = x
           800.000ns : [mon] push = 1, wdata = 18, full = 0, pop = 1, rdata = b3, empty = 0
           800.000ns : [scb] push = 1, wdata = 18, full = 0, pop = 1, rdata = b3, empty = 0
PASS
           800.000ns : [gen] push = 0, wdata = db, full = x, pop = 0, rdata = xx, empty = x
           806.000ns : [drv] push = 0, wdata = db, full = x, pop = 0, rdata = xx, empty = x
           810.000ns : [mon] push = 0, wdata = 18, full = 0, pop = 0, rdata = a6, empty = 0
           810.000ns : [scb] push = 0, wdata = 18, full = 0, pop = 0, rdata = a6, empty = 0
           810.000ns : [gen] push = 1, wdata = 3d, full = x, pop = 0, rdata = xx, empty = x
           816.000ns : [drv] push = 1, wdata = 3d, full = x, pop = 0, rdata = xx, empty = x
           820.000ns : [mon] push = 1, wdata = 3d, full = 0, pop = 0, rdata = a6, empty = 0
           820.000ns : [scb] push = 1, wdata = 3d, full = 0, pop = 0, rdata = a6, empty = 0
           820.000ns : [gen] push = 0, wdata = 39, full = x, pop = 0, rdata = xx, empty = x
           826.000ns : [drv] push = 0, wdata = 39, full = x, pop = 0, rdata = xx, empty = x
           830.000ns : [mon] push = 0, wdata = 3d, full = 0, pop = 0, rdata = a6, empty = 0
